[
  {
    "id": 1,
    "text": {
      "uz": "Endi bozorga borishga hojat yo’q",
      "en": "Энди бозорга боришга ҳожат йўқ"
    }
  },
  {
    "id": 2,
    "text": {
      "uz": "Istalgan kitobni elektron va audio shaklda yuklab oling",
      "en": "Исталган китобни электрон ва аудио шаклда юклаб олинг"
    }
  },
  {
    "id": 3,
    "text": {
      "uz": "Bizda eng muhimi barchasi tekin",
      "en": "Бизда энг муҳими барчаси текин"
    }
  },
  {
    "id": 4,
    "text": {
      "uz": "Boshqalarga ulashishni unutmang",
      "en": "Бошқаларга улашишни унутманг"
    }
  }
]